Joint definition of cell types from multiple scRNA-seq datasets • rliger
…
markerTop3 <- clusterMarkerStats %>%
    # Exlude insignificant result and use only up-regulated genes for each cluster
    filter(padj < 0.05, logFC > 0) %>% 
    # Allow the following operations to be done within each cluster
    group_by(group) %>%
    # Sort the result by adjusted p-value ascending and logFC descending, and keep 
    # the sorting happening within each cluster
    arrange(padj, desc(logFC), .by_group = TRUE) %>%
    # Show the top three markers. Since we grouped by cluster, that's for each cluster
    slice_head(n = 3)
print(markerTop3)

## # A tibble: 39 × 7
## # Groups:   group [13]
##    feature group logFC      pval      padj pct_in pct_out
##    <chr>   <fct> <dbl>     <dbl>     <dbl>  <dbl>   <dbl>
##  1 ATP6V1F 0     2.68  0         0           93.8   40.6 
##  2 CFL1    0     1.18  0         0           91.1   67.8 
##  3 CD63    0     3.22  8.75e-269 2.79e-265   99.3   31.8 
##  4 LDHB    1     1.97  0         0           79.7   29.8 
##  5 RPL13   1     1.09  0         0          100.    98.8 
##  6 RPS27A  1     0.971 5.41e-295 6.77e-292   99.9   96.3 
##  7 CD2     2     1.85  9.15e-192 1.10e-188   55.7   19.3 
##  8 ZFP36L2 2     1.84  1.02e-190 1.11e-187   72.2   30.4 
##  9 RPL13A  2     0.879 1.06e-168 7.50e-166   99.9   98.1 
## 10 CD79A   3     6.01  1.12e-272 3.35e-269   66.1    1.64
## # ℹ 29 more rows
…
